Pricing analytics in R
…
To learn more about maps: see maps with ggplot2.

Exercises:

can you plot an empty map of Belgium, i.e.postcal code areas not filled with any color?

Using pipes to extract useful summaries

In the previous Section you explored the data that are available. However, you did not yet link covariates to claims. In this Section you focus on marginal, empirical models by calculating the empirical claim frequency per level of a covariate. Here you see how this works.

DT %>% group_by(AGEPH) %>% 
  summarize(emp_freq = sum(NCLAIMS) / sum(EXP)) 

## # A tibble: 78 x 2
##    AGEPH emp_freq
##    <int>    <dbl>
##  1    18    1.08 
##  2    19    0.301
##  3    20    0.330
##  4    21    0.276
##  5    22    0.259
##  6    23    0.255
##  7    24    0.243
##  8    25    0.233
##  9    26    0.216
## 10    27    0.192
## # ... with 68 more rows
…
